{
   "type": "mysql",
   "host": "106.54.84.248",
   "port": 3306,
   "username": "root",
   "password": "123456",
   "database": "db1",
   "synchronize": true,
   "logging": false,
   "entities": [
      "src/entity/**/*.ts"
   ],
   "migrations": [
      "src/migration/**/*.ts"
   ],
   "subscribers": [
      "src/subscriber/**/*.ts"
   ],
   "cli": {
      "entitiesDir": "src/entity",
      "migrationsDir": "src/migration",
      "subscribersDir": "src/subscriber"
   },
   "cache": {
      "type": "redis",
      "options": {
         "host": "106.54.84.248",
         "port": 9000
      }
   }
}